…
dbDisconnect(con)
```

    ## [1] TRUE

``` r
studies
```

    ## # A tibble: 294,117 x 9
    ##    nct_id study_first_sub… phase completion_date study_type
    ##    <chr>  <date>           <chr> <date>          <chr>     
    ##  1 NCT00… 2007-04-03       Phas… 2008-02-29      Intervent…
    ##  2 NCT00… 2007-04-02       <NA>  2013-02-28      Observati…
    ##  3 NCT00… 2007-04-03       N/A   2010-08-31      Intervent…
    ##  4 NCT00… 2007-03-14       Phas… 2007-09-30      Intervent…
    ##  5 NCT00… 2007-04-03       Phas… 2009-12-31      Intervent…
    ##  6 NCT00… 2007-04-02       Phas… 2015-08-22      Intervent…
    ##  7 NCT00… 2007-04-02       Phas… 2008-09-30      Intervent…
    ##  8 NCT00… 2007-04-02       Phas… 2007-04-30      Intervent…
    ##  9 NCT00… 2007-04-02       Phas… 2007-09-02      Intervent…
    ## 10 NCT00… 2007-04-03       N/A   2006-11-30      Intervent…
    ## # ... with 294,107 more rows, and 4 more variables:
    ## #   baseline_population <chr>, overall_status <chr>, why_stopped <chr>,
    ## #   is_fda_regulated_drug <lgl>
…
