…
How many result types are there for trials?

``` r
tmp <- result_groups %>% 
  select(nct_id,result_type) %>% 
  distinct() %>% 
  group_by(nct_id) %>% 
  count()

tmp
```

    # A tibble: 34,431 x 2
    # Groups:   nct_id [34,431]
       nct_id          n
       <chr>       <int>
     1 NCT00000125     4
     2 NCT00000134     4
     3 NCT00000135     4
     4 NCT00000136     4
     5 NCT00000142     4
     6 NCT00000143     4
     7 NCT00000371     4
     8 NCT00000378     4
     9 NCT00000392     4
    10 NCT00000479     4
    # ... with 34,421 more rows
…
How many trials are represented here? Only 34,431

How many groups are in the result\_type’s?

``` r
tmp <- result_groups %>% 
  group_by(nct_id,result_type) %>% 
  count()

tmp
```

    # A tibble: 137,518 x 3
    # Groups:   nct_id, result_type [137,518]
       nct_id      result_type          n
       <chr>       <chr>            <int>
     1 NCT00000125 Baseline             3
     2 NCT00000125 Outcome              2
     3 NCT00000125 Participant Flow     2
     4 NCT00000125 Reported Event       2
     5 NCT00000134 Baseline             4
     6 NCT00000134 Outcome              3
     7 NCT00000134 Participant Flow     3
     8 NCT00000134 Reported Event       3
     9 NCT00000135 Baseline             3
    10 NCT00000135 Outcome              2
    # ... with 137,508 more rows
…
``` r
baseline_measurements <- get_table(con,"baseline_measurements") %>% collect()
```

For a random nct like *NCT00000125*, let’s get the baseline
measurements.

``` r
nct="NCT00000125"

baseline_measurements %>% 
  filter(nct_id==nct)
```

    # A tibble: 27 x 18
           id nct_id result_group_id ctgov_group_code classification category
        <int> <chr>            <int> <chr>            <chr>          <chr>   
     1 4.47e6 NCT00…         4287946 B3               Other          ""      
     2 4.47e6 NCT00…         4287947 B2               Other          ""      
     3 4.47e6 NCT00…         4287948 B1               Other          ""      
     4 4.47e6 NCT00…         4287946 B3               White          ""      
     5 4.47e6 NCT00…         4287947 B2               White          ""      
     6 4.47e6 NCT00…         4287948 B1               White          ""      
     7 4.47e6 NCT00…         4287946 B3               Hispanic       ""      
     8 4.47e6 NCT00…         4287947 B2               Hispanic       ""      
     9 4.47e6 NCT00…         4287948 B1               Hispanic       ""      
    10 4.47e6 NCT00…         4287946 B3               African Ameri… ""      
    # ... with 17 more rows, and 12 more variables: title <chr>,
    #   description <chr>, units <chr>, param_type <chr>, param_value <chr>,
    #   param_value_num <dbl>, dispersion_type <chr>, dispersion_value <chr>,
    #   dispersion_value_num <dbl>, dispersion_lower_limit <dbl>,
    #   dispersion_upper_limit <dbl>, explanation_of_na <chr>
…
