…
``` r
studies <- get_table(con,"studies") %>% select(nct_id,study_first_submitted_date,phase,
                                               completion_date,study_type,
                                               baseline_population,overall_status,
                                               why_stopped,is_fda_regulated_drug) %>% 
  collect() %>% distinct()

studies
```

    ## # A tibble: 291,361 x 9
    ##    nct_id study_first_sub… phase completion_date study_type
    ##    <chr>  <date>           <chr> <date>          <chr>     
    ##  1 NCT02… 2014-02-05       <NA>  2015-07-31      Observati…
    ##  2 NCT02… 2014-12-04       N/A   2015-12-31      Intervent…
    ##  3 NCT02… 2014-12-05       Phas… 2016-05-31      Intervent…
    ##  4 NCT02… 2014-12-05       Phas… 2017-12-21      Intervent…
    ##  5 NCT02… 2014-12-04       Phas… 2020-07-31      Intervent…
    ##  6 NCT02… 2014-12-05       Phas… 2016-06-30      Intervent…
    ##  7 NCT02… 2014-12-05       Phas… 2024-12-02      Intervent…
    ##  8 NCT02… 2014-12-06       N/A   2016-12-31      Intervent…
    ##  9 NCT02… 2014-12-05       Phas… 2018-05-31      Intervent…
    ## 10 NCT02… 2014-12-06       <NA>  2019-06-30      Observati…
    ## # ... with 291,351 more rows, and 4 more variables:
    ## #   baseline_population <chr>, overall_status <chr>, why_stopped <chr>,
    ## #   is_fda_regulated_drug <lgl>
…
