…
## Are trials given for many phases or just one?

``` r
tmp <- data %>% 
  distinct(nct_id,clean_phase) %>% 
  count(nct_id) %>% 
  arrange(desc(n))

tmp
```

    ## # A tibble: 291,790 x 2
    ##    nct_id          n
    ##    <chr>       <int>
    ##  1 NCT00000102     1
    ##  2 NCT00000104     1
    ##  3 NCT00000105     1
    ##  4 NCT00000106     1
    ##  5 NCT00000107     1
    ##  6 NCT00000108     1
    ##  7 NCT00000110     1
    ##  8 NCT00000111     1
    ##  9 NCT00000112     1
    ## 10 NCT00000113     1
    ## # ... with 291,780 more rows

Nope. Trials are only in one phase or phase combo or not given.

## What is the eligibility age distribution for trials?

``` r
data %>% 
  filter(is.na(clean_phase))
```

    ## # A tibble: 150,591 x 4
    ##    nct_id      clean_phase minimum_master_age maximum_master_age
    ##    <chr>       <chr>                    <int>              <int>
    ##  1 NCT00000104 <NA>                        NA                 NA
    ##  2 NCT00000105 <NA>                        18                 NA
    ##  3 NCT00000106 <NA>                        18                 65
    ##  4 NCT00000107 <NA>                        17                 60
    ##  5 NCT00000108 <NA>                        50                 65
    ##  6 NCT00000110 <NA>                        18                 49
    ##  7 NCT00000112 <NA>                         8                 18
    ##  8 NCT00000126 <NA>                        50                 NA
    ##  9 NCT00000133 <NA>                        NA                  1
    ## 10 NCT00000147 <NA>                        18                 46
    ## # ... with 150,581 more rows
…
