…
``` r
tagged_mesh_terms_lowercase_replaced %>% 
  count(clinical_domain, term, sort = TRUE) %>% 
  group_by(clinical_domain) %>% 
  mutate(ground_truth_beta_percentage = 100 * (n / sum(n))) %>% 
  select(-n) %>% 
  # Group by clinical_domain and then arrange by descending order of ground_truth_beta_percentage
  arrange(clinical_domain, -ground_truth_beta_percentage)
```

    ## # A tibble: 4,263 x 3
    ## # Groups:   clinical_domain [10]
    ##    clinical_domain term             ground_truth_beta_percentage
    ##    <chr>           <chr>                                   <dbl>
    ##  1 cardiology      tachycardia                             2.02 
    ##  2 cardiology      echocardiography                        1.21 
    ##  3 cardiology      aneurysm                                1.01 
    ##  4 cardiology      cardiomyopathy                          1.01 
    ##  5 cardiology      heart failure                           0.806
    ##  6 cardiology      angioplasty                             0.605
    ##  7 cardiology      aortic aneurysm                         0.605
    ##  8 cardiology      aortic stenosis                         0.605
    ##  9 cardiology      atrial function                         0.605
    ## 10 cardiology      cardiac output                          0.605
    ## # … with 4,253 more rows
