…
# Use topicmodels package to create a four topic LDA model
topic_lda <- topicmodels::LDA(condition_dtm, k = 4, control = list(seed = 1234))

topic_lda_td <- tidy(topic_lda)

# Spread 
topic_lda_td %>% 
  spread(topic, beta) %>% 
  arrange(desc(`1`))
```

    ## # A tibble: 3,892 x 5
    ##    term                         `1`      `2`      `3`      `4`
    ##    <chr>                      <dbl>    <dbl>    <dbl>    <dbl>
    ##  1 Diabetes Mellitus, Type 2 0.0270 0.00821  0.00182  0.00548 
    ##  2 Diabetes Mellitus         0.0222 0.0108   0.00844  0.0263  
    ##  3 Syndrome                  0.0162 0.00114  0.0282   0.00231 
    ##  4 Hepatitis                 0.0137 0.000317 0.00223  0.00543 
    ##  5 Sclerosis                 0.0132 0.000838 0.000166 0.00228 
    ##  6 Myocardial Ischemia       0.0119 0.0130   0.000651 0.00248 
    ##  7 HIV Infections            0.0108 0.000604 0.0168   0.00620 
    ##  8 Coronary Disease          0.0104 0.0141   0.00142  0.00116 
    ##  9 Hepatitis C               0.0103 0.00110  0.00286  0.000981
    ## 10 Multiple Sclerosis        0.0100 0.00106  0.00153  0.000896
    ## # ... with 3,882 more rows
…
