…
joined <- left_join(cleaned_study_age_phase_data,interventions)
```

    ## Joining, by = "nct_id"

Now I need the RxNorm id of the drug. I don’t think it’s in the database
right now…well, I can join by name for now. Not sure how useful that’ll
be.

``` r
joined
```

    ## # A tibble: 417,688 x 10
    ##    nct_id clean_phase minimum_master_… maximum_master_… pediatric_trial
    ##    <chr>  <chr>                  <int>            <int> <lgl>          
    ##  1 NCT00… 1_2                       14               35 FALSE          
    ##  2 NCT00… <NA>                      NA               NA NA             
    ##  3 NCT00… <NA>                      18               NA NA             
    ##  4 NCT00… <NA>                      18               65 FALSE          
    ##  5 NCT00… <NA>                      17               60 FALSE          
    ##  6 NCT00… <NA>                      50               65 FALSE          
    ##  7 NCT00… <NA>                      18               49 FALSE          
    ##  8 NCT00… 1                         18               NA NA             
    ##  9 NCT00… <NA>                       8               18 FALSE          
    ## 10 NCT00… 3                          6               12 TRUE           
    ## # ... with 417,678 more rows, and 5 more variables:
    ## #   pediatric_inclusive <lgl>, id <int>, intervention_type <chr>,
    ## #   name <chr>, description <chr>
…
