…
Compare to Ground Truth

``` r
browse_conditions %>% 
  mutate(downcase_mesh_term = str_replace_all(downcase_mesh_term,
                                              "(.*),.*", "\\1")) %>%
  inner_join(tagged_mesh_terms_lowercase_replaced, by = c("downcase_mesh_term" = "term")) %>% 
  distinct()
```

    ## # A tibble: 525,050 x 5
    ##        id nct_id      mesh_term downcase_mesh_term clinical_domain    
    ##     <int> <chr>       <chr>     <chr>              <chr>              
    ##  1 584423 NCT04193020 Uveitis   uveitis            infectious_diseases
    ##  2 591109 NCT04140110 Stroke    stroke             cardiology         
    ##  3 591884 NCT04133506 Eczema    eczema             immuno_rheumatology
    ##  4 592227 NCT04130828 Anemia    anemia             oncology           
    ##  5 598668 NCT04079998 Burns     burns              pulmonary_medicine 
    ##  6 599780 NCT04071587 Stroke    stroke             cardiology         
    ##  7 600040 NCT04069546 Stroke    stroke             cardiology         
    ##  8 601157 NCT04060823 Asthma    asthma             immuno_rheumatology
    ##  9 601157 NCT04060823 Asthma    asthma             pulmonary_medicine 
    ## 10 601157 NCT04060823 Asthma    asthma             otolaryngology     
    ## # … with 525,040 more rows
…
